Read/Write, Analyze, and Visualize BIOM Data • rbiom
…
taxa_table(biom, 'Phylum')
#> # A tibble: 294 × 8
#>    .rank  .sample .taxa          .abundance   Age   BMI `Body Site`   Sex   
#>    <fct>  <chr>   <fct>               <dbl> <dbl> <dbl> <fct>         <fct> 
#>  1 Phylum HMP01   Firmicutes            856    22    20 Buccal mucosa Female
#>  2 Phylum HMP01   Bacteroidetes         199    22    20 Buccal mucosa Female
#>  3 Phylum HMP01   Actinobacteria         16    22    20 Buccal mucosa Female
#>  4 Phylum HMP01   Proteobacteria         72    22    20 Buccal mucosa Female
#>  5 Phylum HMP01   Fusobacteria           32    22    20 Buccal mucosa Female
#>  6 Phylum HMP01   Tenericutes             0    22    20 Buccal mucosa Female
#>  7 Phylum HMP02   Firmicutes            803    24    23 Buccal mucosa Male  
#>  8 Phylum HMP02   Bacteroidetes         192    24    23 Buccal mucosa Male  
#>  9 Phylum HMP02   Actinobacteria         52    24    23 Buccal mucosa Male  
#> 10 Phylum HMP02   Proteobacteria         96    24    23 Buccal mucosa Male  
#> # ℹ 284 more rows
…
