…
``` r
taxa_table(biom, 'Phylum')
#> # A tibble: 294 × 8
#>    .rank  .sample .taxa          .abundance   Age   BMI `Body Site`   Sex   
#>    <fct>  <chr>   <fct>               <dbl> <dbl> <dbl> <fct>         <fct> 
#>  1 Phylum HMP01   Firmicutes            866    22    20 Buccal mucosa Female
#>  2 Phylum HMP01   Bacteroidetes         202    22    20 Buccal mucosa Female
#>  3 Phylum HMP01   Actinobacteria         14    22    20 Buccal mucosa Female
#>  4 Phylum HMP01   Proteobacteria         60    22    20 Buccal mucosa Female
#>  5 Phylum HMP01   Fusobacteria           33    22    20 Buccal mucosa Female
#>  6 Phylum HMP01   Tenericutes             0    22    20 Buccal mucosa Female
#>  7 Phylum HMP02   Firmicutes            814    24    23 Buccal mucosa Male  
#>  8 Phylum HMP02   Bacteroidetes         181    24    23 Buccal mucosa Male  
#>  9 Phylum HMP02   Actinobacteria         49    24    23 Buccal mucosa Male  
#> 10 Phylum HMP02   Proteobacteria         97    24    23 Buccal mucosa Male  
#> # ℹ 284 more rows
```
…
