…
    
    adiv_boxplot(biom, x="Sex", stat.by="Body Site", adiv=c("otu", "shan"), layers = "bld")

    
    adiv_boxplot(biom, x="body", stat.by="sex", adiv=c('sha', 'sim'), flip=TRUE, layers="p")

    
    
    # Each plot object includes additional information.
    fig <- adiv_boxplot(biom, x="Body Site")
    
    ## Computed Data Points -------------------
    fig$data
#> # A tibble: 49 × 5
#>    .sample .depth .adiv   .diversity `Body Site`   
#>  * <chr>    <dbl> <fct>        <dbl> <fct>         
#>  1 HMP01     1183 shannon       1.71 Buccal mucosa 
#>  2 HMP02     1183 shannon       2.58 Buccal mucosa 
#>  3 HMP03     1183 shannon       2.92 Saliva        
#>  4 HMP04     1183 shannon       3.26 Saliva        
#>  5 HMP05     1183 shannon       1.43 Buccal mucosa 
#>  6 HMP06     1183 shannon       3.05 Saliva        
#>  7 HMP07     1183 shannon       1.19 Buccal mucosa 
#>  8 HMP08     1183 shannon       2.50 Saliva        
#>  9 HMP09     1183 shannon       3.59 Saliva        
#> 10 HMP10     1183 shannon       1.75 Anterior nares
#> # ℹ 39 more rows
…
