Calculate the alpha diversity of each sample. — adiv_table • rbiom
…
    biom <- rarefy(biom)
    adiv_table(biom, adiv = ".all", md = NULL)
#> # A tibble: 50 × 4
#>    .sample .depth .adiv .diversity
#>    <fct>    <dbl> <fct>      <dbl>
#>  1 HMP01     1353 OTUs          44
#>  2 HMP02     1353 OTUs          75
#>  3 HMP03     1353 OTUs          75
#>  4 HMP04     1353 OTUs          79
#>  5 HMP05     1353 OTUs          44
#>  6 HMP06     1353 OTUs          80
#>  7 HMP07     1353 OTUs          42
#>  8 HMP08     1353 OTUs          59
#>  9 HMP09     1353 OTUs          97
#> 10 HMP10     1353 OTUs          25
#> # ℹ 40 more rows
…
