Visualize alpha diversity with boxplots. — adiv_boxplot • rbiom
…
    # Each plot object includes additional information.
    fig <- adiv_boxplot(biom, x="Body Site")
    
    ## Computed Data Points -------------------
    fig$data
#> # A tibble: 49 × 5
#>    .sample .depth .adiv   .diversity `Body Site`   
#>  * <chr>    <dbl> <fct>        <dbl> <fct>         
#>  1 HMP01     1183 Shannon       1.76 Buccal mucosa 
#>  2 HMP02     1183 Shannon       2.56 Buccal mucosa 
#>  3 HMP03     1183 Shannon       2.97 Saliva        
#>  4 HMP04     1183 Shannon       3.22 Saliva        
#>  5 HMP05     1183 Shannon       1.40 Buccal mucosa 
#>  6 HMP06     1183 Shannon       3.08 Saliva        
#>  7 HMP07     1183 Shannon       1.26 Buccal mucosa 
#>  8 HMP08     1183 Shannon       2.49 Saliva        
#>  9 HMP09     1183 Shannon       3.59 Saliva        
#> 10 HMP10     1183 Shannon       1.76 Anterior nares
#> # ℹ 39 more rows
…
