…
    biom <- subset(biom, `Body Site` %in% c('Saliva', 'Stool', 'Buccal mucosa'))
    bdiv_stats(biom, stat.by = "Body Site", split.by = "==Sex")[,1:6]
#> # Model:    gam(.distance ~ `Body Site`, method = "REML")
#> # A tibble: 30 × 6
#>    Sex    `Body Site`                         .mean.diff .h1     .p.val   .adj.p
#>    <fct>  <chr>                                    <dbl> <fct>    <dbl>    <dbl>
#>  1 Female Buccal mucosa - Buccal mucosa vs S…     -0.792 != 0  8.67e-36 1.50e-34
#>  2 Female Buccal mucosa - Saliva vs Stool         -0.790 != 0  1.00e-35 1.50e-34
#>  3 Male   Saliva - Saliva vs Stool                -0.511 != 0  3.25e-23 2.47e-22
#>  4 Male   Saliva - Buccal mucosa vs Stool         -0.511 != 0  3.29e-23 2.47e-22
#>  5 Female Buccal mucosa - Buccal mucosa vs S…     -0.590 != 0  2.01e-22 1.21e-21
#>  6 Female Saliva - Buccal mucosa vs Stool         -0.517 != 0  3.04e-21 1.50e-20
#>  7 Female Saliva - Saliva vs Stool                -0.515 != 0  3.50e-21 1.50e-20
#>  8 Female Buccal mucosa vs Saliva - Buccal m…     -0.202 != 0  4.73e-20 1.77e-19
#>  9 Female Buccal mucosa vs Saliva - Saliva v…     -0.200 != 0  7.30e-20 2.43e-19
#> 10 Male   Stool - Saliva vs Stool                 -0.403 != 0  2.59e-18 7.20e-18
#> # ℹ 20 more rows
```
