Test beta diversity for associations with metadata. — bdiv_stats • rbiom
…
    biom <- subset(biom, `Body Site` %in% c('Saliva', 'Stool', 'Buccal mucosa'))
    bdiv_stats(biom, stat.by = "Body Site", split.by = "==Sex")[,1:6]
#> # Model:    gam(.distance ~ `Body Site`, method = "REML")
#> # A tibble: 30 × 6
#>    Sex    `Body Site`                         .mean.diff .h1     .p.val   .adj.p
#>    <fct>  <chr>                                    <dbl> <fct>    <dbl>    <dbl>
#>  1 Female Buccal mucosa - Buccal mucosa vs S…     -0.791 != 0  1.66e-35 2.91e-34
#>  2 Female Buccal mucosa - Saliva vs Stool         -0.789 != 0  1.94e-35 2.91e-34
#>  3 Female Buccal mucosa - Buccal mucosa vs S…     -0.596 != 0  5.30e-23 5.30e-22
#>  4 Male   Saliva - Saliva vs Stool                -0.528 != 0  4.09e-22 3.06e-21
#>  5 Male   Saliva - Buccal mucosa vs Stool         -0.526 != 0  5.30e-22 3.18e-21
#>  6 Female Buccal mucosa vs Saliva - Buccal m…     -0.195 != 0  2.44e-20 1.22e-19
#>  7 Female Buccal mucosa vs Saliva - Saliva v…     -0.193 != 0  3.80e-20 1.63e-19
#>  8 Female Saliva - Buccal mucosa vs Stool         -0.505 != 0  5.18e-20 1.94e-19
#>  9 Female Saliva - Saliva vs Stool                -0.503 != 0  5.95e-20 1.98e-19
#> 10 Male   Buccal mucosa - Saliva vs Stool         -0.531 != 0  9.76e-19 2.93e-18
#> # ℹ 20 more rows
…
