Subset an rbiom object by sample names, OTU names, metadata, or taxonomy. — subset • rbiom
…
    # Subset OTUs according to taxonomy
    biom <- subset_taxa(hmp50, Phylum == 'Cyanobacteria')
    biom$taxonomy
#> # A tibble: 4 × 7
#>   .otu     Kingdom  Phylum        Class           Order             Family Genus
#> * <chr>    <fct>    <fct>         <fct>           <fct>             <fct>  <fct>
#> 1 Hu4Lup30 Bacteria Cyanobacteria Chloroplast     o                 f      g    
#> 2 Unc02oth Bacteria Cyanobacteria Melainabacteria Obscuribacterales f      g    
#> 3 PinJeffr Bacteria Cyanobacteria Chloroplast     o                 f      g    
#> 4 Unc48787 Bacteria Cyanobacteria Melainabacteria Gastranaerophila… f      g    
    
    # Remove samples with NA metadata values
    biom <- mutate(hmp50, BS2 = na_if(`Body Site`, 'Saliva'))
    biom$metadata
#> # A tibble: 50 × 6
#>    .sample   Age   BMI `Body Site`    Sex    BS2           
#>  * <chr>   <dbl> <dbl> <fct>          <fct>  <fct>         
#>  1 HMP01      22    20 Buccal mucosa  Female Buccal mucosa 
#>  2 HMP02      24    23 Buccal mucosa  Male   Buccal mucosa 
#>  3 HMP03      28    26 Saliva         Male   NA            
#>  4 HMP04      25    23 Saliva         Male   NA            
#>  5 HMP05      27    24 Buccal mucosa  Female Buccal mucosa 
#>  6 HMP06      32    25 Saliva         Male   NA            
#>  7 HMP07      26    22 Buccal mucosa  Male   Buccal mucosa 
#>  8 HMP08      27    26 Saliva         Female NA            
#>  9 HMP09      33    32 Saliva         Male   NA            
#> 10 HMP10      22    20 Anterior nares Female Anterior nares
#> # ℹ 40 more rows
    biom <- na.omit(biom)
    biom$metadata
#> # A tibble: 40 × 6
#>    .sample   Age   BMI `Body Site`    Sex    BS2           
#>  * <chr>   <dbl> <dbl> <fct>          <fct>  <fct>         
#>  1 HMP01      22    20 Buccal mucosa  Female Buccal mucosa 
#>  2 HMP02      24    23 Buccal mucosa  Male   Buccal mucosa 
#>  3 HMP05      27    24 Buccal mucosa  Female Buccal mucosa 
#>  4 HMP07      26    22 Buccal mucosa  Male   Buccal mucosa 
#>  5 HMP10      22    20 Anterior nares Female Anterior nares
#>  6 HMP11      24    23 Buccal mucosa  Female Buccal mucosa 
#>  7 HMP12      35    26 Stool          Male   Stool         
#>  8 HMP13      24    21 Buccal mucosa  Female Buccal mucosa 
#>  9 HMP14      32    26 Buccal mucosa  Male   Buccal mucosa 
#> 10 HMP15      25    21 Anterior nares Female Anterior nares
#> # ℹ 30 more rows
…
