…
## Examples

``` r
    library(rbiom)
    
    biom <- rarefy(hmp50)
    
    taxa_stats(biom, stat.by = "Body Site", rank = "Family")[,1:6]
#> # Model:    gam(.abundance ~ `Body Site`, method = "REML")
#> # A tibble: 60 × 6
#>    .taxa            `Body Site`                .mean.diff .h1     .p.val  .adj.p
#>    <fct>            <chr>                           <dbl> <fct>    <dbl>   <dbl>
#>  1 Bacteroidaceae   Mid vagina - Stool              -611. != 0  4.59e-10 7.01e-9
#>  2 Bacteroidaceae   Anterior nares - Stool          -610. != 0  4.74e-10 7.01e-9
#>  3 Bacteroidaceae   Buccal mucosa - Stool           -610. != 0  4.75e-10 7.01e-9
#>  4 Bacteroidaceae   Saliva - Stool                  -610. != 0  4.75e-10 7.01e-9
#>  5 Streptococcaceae Buccal mucosa - Mid vagina       788. != 0  1.29e- 8 1.53e-7
#>  6 Streptococcaceae Anterior nares - Buccal m…      -767. != 0  2.15e- 8 2.07e-7
#>  7 Lactobacillaceae Mid vagina - Saliva             1049. != 0  3.14e- 8 2.07e-7
#>  8 Lactobacillaceae Buccal mucosa - Mid vagina     -1049. != 0  3.14e- 8 2.07e-7
#>  9 Lactobacillaceae Anterior nares - Mid vagi…     -1048. != 0  3.15e- 8 2.07e-7
#> 10 Streptococcaceae Buccal mucosa - Stool            789. != 0  4.88e- 8 2.88e-7
#> # ℹ 50 more rows
```
