…
``` r
    library(rbiom)
    
    hmp50$ranks
#> [1] ".otu"    "Kingdom" "Phylum"  "Class"   "Order"   "Family"  "Genus"  
    
    taxa_matrix(hmp50, 'Phylum')[1:4,1:6]
#>                     HMP01 HMP02 HMP03 HMP04 HMP05 HMP06
#> Actinobacteria         18    60   126   120    30    71
#> Bacteroidetes         276   221   313   218   144   880
#> Cyanobacteria           0     0     0     0     0     0
#> Deinococcus Thermus     0     0     0     0     0     0
    
    taxa_table(hmp50, 'Phylum')
#> # A tibble: 300 × 8
#>    .rank  .sample .taxa          .abundance   Age   BMI `Body Site`   Sex   
#>    <fct>  <chr>   <fct>               <dbl> <dbl> <dbl> <fct>         <fct> 
#>  1 Phylum HMP01   Firmicutes           1208    22    20 Buccal mucosa Female
#>  2 Phylum HMP01   Bacteroidetes         276    22    20 Buccal mucosa Female
#>  3 Phylum HMP01   Actinobacteria         18    22    20 Buccal mucosa Female
#>  4 Phylum HMP01   Proteobacteria        103    22    20 Buccal mucosa Female
#>  5 Phylum HMP01   Fusobacteria           41    22    20 Buccal mucosa Female
#>  6 Phylum HMP01   Tenericutes             0    22    20 Buccal mucosa Female
#>  7 Phylum HMP02   Firmicutes            931    24    23 Buccal mucosa Male  
#>  8 Phylum HMP02   Bacteroidetes         221    24    23 Buccal mucosa Male  
#>  9 Phylum HMP02   Actinobacteria         60    24    23 Buccal mucosa Male  
#> 10 Phylum HMP02   Proteobacteria        112    24    23 Buccal mucosa Male  
#> # ℹ 290 more rows
```
