Test taxa abundances for associations with metadata. — taxa_stats • rbiom
…
Other stats_tables:
adiv_stats(),
bdiv_stats(),
distmat_stats(),
stats_table()

    Examples

    library(rbiom)
    
    biom <- rarefy(hmp50)
    
    taxa_stats(biom, stat.by = "Body Site", rank = "Family")[,1:6]
#> # Model:    gam(.abundance ~ `Body Site`, method = "REML")
#> # A tibble: 60 × 6
#>    .taxa            `Body Site`                .mean.diff .h1     .p.val  .adj.p
#>    <fct>            <chr>                           <dbl> <fct>    <dbl>   <dbl>
#>  1 Bacteroidaceae   Mid vagina - Stool              -608. != 0  5.43e-10 8.66e-9
#>  2 Bacteroidaceae   Saliva - Stool                  -607. != 0  5.61e-10 8.66e-9
#>  3 Bacteroidaceae   Anterior nares - Stool          -607. != 0  5.64e-10 8.66e-9
#>  4 Bacteroidaceae   Buccal mucosa - Stool           -606. != 0  5.77e-10 8.66e-9
#>  5 Streptococcaceae Buccal mucosa - Mid vagina       784. != 0  1.49e- 8 1.78e-7
#>  6 Streptococcaceae Anterior nares - Buccal m…      -763. != 0  2.36e- 8 2.01e-7
#>  7 Lactobacillaceae Mid vagina - Saliva             1049. != 0  3.01e- 8 2.01e-7
#>  8 Lactobacillaceae Buccal mucosa - Mid vagina     -1048. != 0  3.01e- 8 2.01e-7
#>  9 Lactobacillaceae Anterior nares - Mid vagi…     -1048. != 0  3.02e- 8 2.01e-7
#> 10 Streptococcaceae Buccal mucosa - Stool            784. != 0  5.50e- 8 3.30e-7
#> # ℹ 50 more rows
…
