Regression • rbiom
…
Linear Trends

Let’s explore Firmicutes abundance in the babies
dataset.

df <- taxa_table(babies, rank = "Phylum", taxa = "Firmicutes") %>%
  select(
    .sample, .taxa, .abundance, 
    age      = `Age (days)`, 
    sex      = Sex, 
    delivery = `Delivery mode`, 
    subject  = `Subject ID` )

df
#> # A tibble: 2,684 × 7
#>   .sample    .taxa      .abundance   age sex    delivery subject
#>   <chr>      <fct>           <dbl> <dbl> <fct>  <fct>    <fct>  
#> 1 SRR7044380 Firmicutes        132   255 Female Vaginal  ID3    
#> 2 SRR7058817 Firmicutes         11    31 Female Vaginal  ID12   
#> 3 SRR7039319 Firmicutes         55   222 Female Vaginal  ID1    
#> 4 SRR7053418 Firmicutes        397    41 Male   Vaginal  ID6    
#> 5 SRR7054009 Firmicutes        103    79 Female Vaginal  ID8    
#> # ℹ 2,679 more rows
…
