Statistics • rbiom
…
.df - Degrees of freedom. One less than the number of
groups. The HMP50 dataset has five body sites: Anterior nares, buccal
mucosa, mid vagina, saliva, and stool. However, the male facets don’t
have any mid vagina samples.

Data and Code

You can inspect the data passed to kruskal.test() by
looking at p$data. Additionally, the code used to generate
the statistics is available in p$stats$code. These
attributes can help you reproduce and customize your data analysis.

p$data
#> # A tibble: 98 × 6
#>   .sample .depth .adiv   .diversity `Body Site`   Sex   
#> * <chr>    <dbl> <fct>        <dbl> <fct>         <fct> 
#> 1 HMP01     1183 Shannon       1.76 Buccal mucosa Female
#> 2 HMP02     1183 Shannon       2.60 Buccal mucosa Male  
#> 3 HMP03     1183 Shannon       2.92 Saliva        Male  
#> 4 HMP04     1183 Shannon       3.26 Saliva        Male  
#> 5 HMP05     1183 Shannon       1.40 Buccal mucosa Female
#> # ℹ 93 more rows
…
