Visualize alpha diversity with boxplots. — adiv_boxplot • rbiom
…
    # Each plot object includes additional information.
    fig <- adiv_boxplot(biom, x="Body Site")
    
    ## Computed Data Points -------------------
    fig$data
#> # A tibble: 49 × 6
#>    .sample .depth .adiv      .y `Body Site`    .group        
#>  * <chr>    <dbl> <fct>   <dbl> <fct>          <chr>         
#>  1 HMP01     1183 Shannon  1.76 Buccal mucosa  Buccal mucosa 
#>  2 HMP02     1183 Shannon  2.60 Buccal mucosa  Buccal mucosa 
#>  3 HMP03     1183 Shannon  2.92 Saliva         Saliva        
#>  4 HMP04     1183 Shannon  3.26 Saliva         Saliva        
#>  5 HMP05     1183 Shannon  1.40 Buccal mucosa  Buccal mucosa 
#>  6 HMP06     1183 Shannon  3.03 Saliva         Saliva        
#>  7 HMP07     1183 Shannon  1.24 Buccal mucosa  Buccal mucosa 
#>  8 HMP08     1183 Shannon  2.49 Saliva         Saliva        
#>  9 HMP09     1183 Shannon  3.56 Saliva         Saliva        
#> 10 HMP10     1183 Shannon  1.72 Anterior nares Anterior nares
#> # ℹ 39 more rows
…
