Get or set the taxonomy table. — otu_taxonomy • rbiom
…
    See also

    Other taxonomy: 
n_ranks(),
taxa_ranks(),
write_taxonomy()

    Examples

    library(rbiom) 
    
    # Display the full taxonomic data for each OTU ------------------------
    otu_taxonomy(hmp50)
#> # A tibble: 490 × 7
#>    Kingdom  Phylum           Class              Order         Family Genus .otu 
#>    <fct>    <fct>            <fct>              <fct>         <fct>  <fct> <fct>
#>  1 Bacteria Bacteroidetes    Bacteroidia        Bacteroidales Riken… Alis… UncO…
#>  2 Bacteria Firmicutes       Clostridia         Clostridiales Lachn… Lach… UncO…
#>  3 Bacteria Actinobacteria   Actinobacteria     Actinomyceta… Actin… Acti… AnmM…
#>  4 Bacteria Bacteroidetes    Bacteroidia        Bacteroidales Prevo… Prev… PreB…
#>  5 Bacteria Bacteroidetes    Bacteroidia        Bacteroidales Porph… Barn… CprS…
#>  6 Bacteria Bacteroidetes    Flavobacteriia     Flavobacteri… Flavo… Capn… Unc9…
#>  7 Bacteria Proteobacteria   Betaproteobacteria Burkholderia… Comam… Coma… Unc0…
#>  8 Bacteria Firmicutes       Clostridia         Clostridiales Pepto… Pept… Unc0…
#>  9 Bacteria Saccharibacteria Unknown Class      Unknown Order Unkno… Cand… Unc1…
#> 10 Bacteria Firmicutes       Bacilli            Bacillales    Liste… Broc… BroS…
#> # ℹ 480 more rows
…
