Working with rbiom Objects. — rbiom_objects • rbiom
…
    # Demonstrate a few accessors.
    biom$n_samples
#> [1] 50
    biom$fields
#> [1] ".sample"   "Age"       "BMI"       "Body Site" "Sex"      
    biom$metadata
#> # A tibble: 50 × 5
#>    .sample   Age   BMI `Body Site`    Sex   
#>    <chr>   <dbl> <dbl> <fct>          <fct> 
#>  1 HMP01      22    20 Buccal mucosa  Female
#>  2 HMP02      24    23 Buccal mucosa  Male  
#>  3 HMP03      28    26 Saliva         Male  
#>  4 HMP04      25    23 Saliva         Male  
#>  5 HMP05      27    24 Buccal mucosa  Female
#>  6 HMP06      32    25 Saliva         Male  
#>  7 HMP07      26    22 Buccal mucosa  Male  
#>  8 HMP08      27    26 Saliva         Female
#>  9 HMP09      33    32 Saliva         Male  
#> 10 HMP10      22    20 Anterior nares Female
#> # ℹ 40 more rows

    # Edit the metadata table.
    biom$metadata$rand <- sample(1:50)
    biom %<>% mutate(Obese = BMI >= 30, Sex = NULL)
    biom %<>% rename('Years Old' = "Age")
    biom$metadata
#> # A tibble: 50 × 6
#>    .sample `Years Old`   BMI `Body Site`     rand Obese
#>    <chr>         <dbl> <dbl> <fct>          <int> <lgl>
#>  1 HMP01            22    20 Buccal mucosa      5 FALSE
#>  2 HMP02            24    23 Buccal mucosa     25 FALSE
#>  3 HMP03            28    26 Saliva            22 FALSE
#>  4 HMP04            25    23 Saliva            49 FALSE
#>  5 HMP05            27    24 Buccal mucosa     32 FALSE
#>  6 HMP06            32    25 Saliva            47 FALSE
#>  7 HMP07            26    22 Buccal mucosa     23 FALSE
#>  8 HMP08            27    26 Saliva            35 FALSE
#>  9 HMP09            33    32 Saliva            40 TRUE 
#> 10 HMP10            22    20 Anterior nares    30 FALSE
#> # ℹ 40 more rows
…
