Taxa abundances per sample. — taxa_matrix • rbiom
…
    library(rbiom)
    
    biom$ranks
#> Error in eval(expr, envir, enclos): object 'biom' not found
    
    taxa_matrix(hmp50, 'Phylum')[1:4,1:6]
#>                     HMP01 HMP02 HMP03 HMP04 HMP05 HMP06
#> Actinobacteria         18    60   126   120    30    71
#> Bacteroidetes         276   221   313   218   144   880
#> Cyanobacteria           0     0     0     0     0     0
#> Deinococcus Thermus     0     0     0     0     0     0
    
    taxa_table(hmp50, 'Phylum')
#> # A tibble: 650 × 8
#>    .rank  .sample .taxa               .abundance   Age   BMI `Body Site`   Sex  
#>    <fct>  <chr>   <fct>                    <dbl> <dbl> <dbl> <fct>         <fct>
#>  1 Phylum HMP01   Actinobacteria              18    22    20 Buccal mucosa Fema…
#>  2 Phylum HMP01   Bacteroidetes              276    22    20 Buccal mucosa Fema…
#>  3 Phylum HMP01   Cyanobacteria                0    22    20 Buccal mucosa Fema…
#>  4 Phylum HMP01   Deinococcus Thermus          0    22    20 Buccal mucosa Fema…
#>  5 Phylum HMP01   Firmicutes                1208    22    20 Buccal mucosa Fema…
#>  6 Phylum HMP01   Fusobacteria                41    22    20 Buccal mucosa Fema…
#>  7 Phylum HMP01   Gracilibacteria             14    22    20 Buccal mucosa Fema…
#>  8 Phylum HMP01   Proteobacteria             103    22    20 Buccal mucosa Fema…
#>  9 Phylum HMP01   Saccharibacteria             0    22    20 Buccal mucosa Fema…
#> 10 Phylum HMP01   Spirochaetae                 0    22    20 Buccal mucosa Fema…
#> # ℹ 640 more rows
…
