Test taxa abundances for associations with metadata. — taxa_stats • rbiom
…
Other stats_tables: 
adiv_stats(),
bdiv_stats(),
distmat_stats(),
stats_table()

    Examples

    library(rbiom)
    
    biom <- rarefy(hmp50)
    
    taxa_stats(biom, stat.by = "Body Site", rank = "Family")[,1:6]
#> # Model:    gam(.abundance ~ `Body Site`, method = "REML")
#> # A tibble: 60 × 6
#>    .taxa            `Body Site`                .mean.diff .h1     .p.val  .adj.p
#>    <fct>            <chr>                           <dbl> <fct>    <dbl>   <dbl>
#>  1 Bacteroidaceae   Mid vagina - Stool              -603. != 0  4.96e-10 7.72e-9
#>  2 Bacteroidaceae   Saliva - Stool                  -602. != 0  5.11e-10 7.72e-9
#>  3 Bacteroidaceae   Anterior nares - Stool          -602. != 0  5.13e-10 7.72e-9
#>  4 Bacteroidaceae   Buccal mucosa - Stool           -602. != 0  5.14e-10 7.72e-9
#>  5 Streptococcaceae Buccal mucosa - Mid vagina       784. != 0  1.35e- 8 1.62e-7
#>  6 Streptococcaceae Anterior nares - Buccal m…      -765. != 0  2.10e- 8 2.08e-7
#>  7 Lactobacillaceae Buccal mucosa - Mid vagina     -1048. != 0  3.12e- 8 2.08e-7
#>  8 Lactobacillaceae Mid vagina - Saliva             1048. != 0  3.12e- 8 2.08e-7
#>  9 Lactobacillaceae Anterior nares - Mid vagi…     -1047. != 0  3.13e- 8 2.08e-7
#> 10 Streptococcaceae Buccal mucosa - Stool            785. != 0  5.05e- 8 3.03e-7
#> # ℹ 50 more rows
…
