…
### Add Metadata

Additional sample metadata columns can be added to `biom$metadata` (a
tibble data.frame). The first column, `'.sample'`, is used by rbiom to
link sample metadata to samples in the abundance table.

``` r
biom$metadata$group <- sample(c('A', 'B'), biom$n_samples, TRUE)
biom %<>% mutate(Obese = BMI >= 30, Sex = NULL)
biom %<>% rename('Years Old' = "Age")
biom$metadata
#> # A tibble: 49 × 6
#>   .sample `Years Old`   BMI `Body Site`   group Obese
#> * <chr>         <dbl> <dbl> <fct>         <fct> <lgl>
#> 1 HMP01            22    20 Buccal mucosa A     FALSE
#> 2 HMP02            24    23 Buccal mucosa A     FALSE
#> 3 HMP03            28    26 Saliva        B     FALSE
#> 4 HMP04            25    23 Saliva        A     FALSE
#> 5 HMP05            27    24 Buccal mucosa A     FALSE
#> # ℹ 44 more rows
```

[`mutate()`](https://dplyr.tidyverse.org/reference/mutate.html),
[`rename()`](https://dplyr.tidyverse.org/reference/rename.html)

### Subset Samples

Removing samples from the metadata will remove those samples from the
entire rbiom object.

``` r
biom %<>% subset(`Body Site` == "Anterior nares")
biom$metadata
#> # A tibble: 10 × 6
#>   .sample `Years Old`   BMI `Body Site`    group Obese
#> * <chr>         <dbl> <dbl> <fct>          <fct> <lgl>
#> 1 HMP10            22    20 Anterior nares B     FALSE
#> 2 HMP15            25    21 Anterior nares A     FALSE
#> 3 HMP16            24    19 Anterior nares B     FALSE
#> 4 HMP25            33    32 Anterior nares A     TRUE 
#> 5 HMP31            31    20 Anterior nares A     FALSE
#> # ℹ 5 more rows
…
[`subset()`](https://cmmr.github.io/rbiom/reference/subset.md),
[`slice()`](https://dplyr.tidyverse.org/reference/slice.html)

## Compute

Functions that end in `_table` or `_matrix` return calculation results
for use outside of rbiom. The `_table` suffix indicates the returned
object will be a tibble data.frame with one computed value per row.
Alternatively, `_matrix` will return a base R matrix.

``` r
taxa_table(biom, rank = "Phylum")
#> # A tibble: 60 × 9
#>   .rank  .sample .taxa      .abundance `Years Old`   BMI `Body Site` group Obese
#>   <fct>  <chr>   <fct>           <dbl>       <dbl> <dbl> <fct>       <fct> <lgl>
#> 1 Phylum HMP10   Actinobac…        724          22    20 Anterior n… B     FALSE
#> 2 Phylum HMP10   Firmicutes        446          22    20 Anterior n… B     FALSE
#> 3 Phylum HMP10   Proteobac…          3          22    20 Anterior n… B     FALSE
#> 4 Phylum HMP10   Bacteroid…         10          22    20 Anterior n… B     FALSE
#> 5 Phylum HMP10   Cyanobact…          0          22    20 Anterior n… B     FALSE
#> # ℹ 55 more rows
…
