…
### Data and Code

You can inspect the data passed to
[`kruskal.test()`](https://rdrr.io/r/stats/kruskal.test.html) by looking
at `p$data`. Additionally, the code used to generate the statistics is
available in `p$stats$code`. These attributes can help you reproduce and
customize your data analysis.

``` r
p$data
#> # A tibble: 98 × 6
#>   .sample .depth .adiv   .diversity `Body Site`   Sex   
#> * <chr>    <dbl> <fct>        <dbl> <fct>         <fct> 
#> 1 HMP01     1183 shannon       1.71 Buccal mucosa Female
#> 2 HMP02     1183 shannon       2.58 Buccal mucosa Male  
#> 3 HMP03     1183 shannon       2.92 Saliva        Male  
#> 4 HMP04     1183 shannon       3.26 Saliva        Male  
#> 5 HMP05     1183 shannon       1.43 Buccal mucosa Female
#> # ℹ 93 more rows
…
